[
[{"rok":1970,"nazev":"Irská republikánská armáda","y":15},
{"rok":1971,"nazev":"Irská republikánská armáda","y":77},
{"rok":1972,"nazev":"Irská republikánská armáda","y":224},
{"rok":1973,"nazev":"Irská republikánská armáda","y":124},
{"rok":1974,"nazev":"Irská republikánská armáda","y":132},
{"rok":1975,"nazev":"Irská republikánská armáda","y":81},
{"rok":1976,"nazev":"Irská republikánská armáda","y":108},
{"rok":1977,"nazev":"Irská republikánská armáda","y":70},
{"rok":1978,"nazev":"Irská republikánská armáda","y":66},
{"rok":1979,"nazev":"Irská republikánská armáda","y":113},
{"rok":1980,"nazev":"Irská republikánská armáda","y":60},
{"rok":1981,"nazev":"Irská republikánská armáda","y":67},
{"rok":1982,"nazev":"Irská republikánská armáda","y":51},
{"rok":1983,"nazev":"Irská republikánská armáda","y":58},
{"rok":1984,"nazev":"Irská republikánská armáda","y":55},
{"rok":1985,"nazev":"Irská republikánská armáda","y":61},
{"rok":1986,"nazev":"Irská republikánská armáda","y":38},
{"rok":1987,"nazev":"Irská republikánská armáda","y":74},
{"rok":1988,"nazev":"Irská republikánská armáda","y":82},
{"rok":1989,"nazev":"Irská republikánská armáda","y":58},
{"rok":1990,"nazev":"Irská republikánská armáda","y":59},
{"rok":1991,"nazev":"Irská republikánská armáda","y":52},
{"rok":1992,"nazev":"Irská republikánská armáda","y":43},
{"rok":1994,"nazev":"Irská republikánská armáda","y":20},
{"rok":1995,"nazev":"Irská republikánská armáda","y":4},
{"rok":1996,"nazev":"Irská republikánská armáda","y":7},
{"rok":1997,"nazev":"Irská republikánská armáda","y":3},
{"rok":1998,"nazev":"Irská republikánská armáda","y":3},
{"rok":1999,"nazev":"Irská republikánská armáda","y":2},
{"rok":2000,"nazev":"Irská republikánská armáda","y":1},
{"rok":2001,"nazev":"Irská republikánská armáda","y":0},
{"rok":2002,"nazev":"Irská republikánská armáda","y":0},
{"rok":2003,"nazev":"Irská republikánská armáda","y":0},
{"rok":2004,"nazev":"Irská republikánská armáda","y":0},
{"rok":2005,"nazev":"Irská republikánská armáda","y":0},
{"rok":2006,"nazev":"Irská republikánská armáda","y":1},
{"rok":2007,"nazev":"Irská republikánská armáda","y":0},
{"rok":2008,"nazev":"Irská republikánská armáda","y":0},
{"rok":2009,"nazev":"Irská republikánská armáda","y":0},
{"rok":2010,"nazev":"Irská republikánská armáda","y":0},
{"rok":2011,"nazev":"Irská republikánská armáda","y":0},
{"rok":2012,"nazev":"Irská republikánská armáda","y":0},
{"rok":2013,"nazev":"Irská republikánská armáda","y":0},
{"rok":2014,"nazev":"Irská republikánská armáda","y":0}],
[{"rok":1970,"nazev":"Baskicko a jeho svoboda (ETA)","y":0},
{"rok":1971,"nazev":"Baskicko a jeho svoboda (ETA)","y":0},
{"rok":1972,"nazev":"Baskicko a jeho svoboda (ETA)","y":1},
{"rok":1973,"nazev":"Baskicko a jeho svoboda (ETA)","y":3},
{"rok":1974,"nazev":"Baskicko a jeho svoboda (ETA)","y":19},
{"rok":1975,"nazev":"Baskicko a jeho svoboda (ETA)","y":13},
{"rok":1976,"nazev":"Baskicko a jeho svoboda (ETA)","y":13},
{"rok":1977,"nazev":"Baskicko a jeho svoboda (ETA)","y":14},
{"rok":1978,"nazev":"Baskicko a jeho svoboda (ETA)","y":66},
{"rok":1979,"nazev":"Baskicko a jeho svoboda (ETA)","y":77},
{"rok":1980,"nazev":"Baskicko a jeho svoboda (ETA)","y":94},
{"rok":1981,"nazev":"Baskicko a jeho svoboda (ETA)","y":23},
{"rok":1982,"nazev":"Baskicko a jeho svoboda (ETA)","y":39},
{"rok":1983,"nazev":"Baskicko a jeho svoboda (ETA)","y":37},
{"rok":1984,"nazev":"Baskicko a jeho svoboda (ETA)","y":36},
{"rok":1985,"nazev":"Baskicko a jeho svoboda (ETA)","y":46},
{"rok":1986,"nazev":"Baskicko a jeho svoboda (ETA)","y":51},
{"rok":1987,"nazev":"Baskicko a jeho svoboda (ETA)","y":53},
{"rok":1988,"nazev":"Baskicko a jeho svoboda (ETA)","y":22},
{"rok":1989,"nazev":"Baskicko a jeho svoboda (ETA)","y":23},
{"rok":1990,"nazev":"Baskicko a jeho svoboda (ETA)","y":18},
{"rok":1991,"nazev":"Baskicko a jeho svoboda (ETA)","y":42},
{"rok":1992,"nazev":"Baskicko a jeho svoboda (ETA)","y":25},
{"rok":1994,"nazev":"Baskicko a jeho svoboda (ETA)","y":16},
{"rok":1995,"nazev":"Baskicko a jeho svoboda (ETA)","y":14},
{"rok":1996,"nazev":"Baskicko a jeho svoboda (ETA)","y":5},
{"rok":1997,"nazev":"Baskicko a jeho svoboda (ETA)","y":6},
{"rok":1998,"nazev":"Baskicko a jeho svoboda (ETA)","y":6},
{"rok":1999,"nazev":"Baskicko a jeho svoboda (ETA)","y":0},
{"rok":2000,"nazev":"Baskicko a jeho svoboda (ETA)","y":26},
{"rok":2001,"nazev":"Baskicko a jeho svoboda (ETA)","y":13},
{"rok":2002,"nazev":"Baskicko a jeho svoboda (ETA)","y":4},
{"rok":2003,"nazev":"Baskicko a jeho svoboda (ETA)","y":3},
{"rok":2004,"nazev":"Baskicko a jeho svoboda (ETA)","y":0},
{"rok":2005,"nazev":"Baskicko a jeho svoboda (ETA)","y":0},
{"rok":2006,"nazev":"Baskicko a jeho svoboda (ETA)","y":2},
{"rok":2007,"nazev":"Baskicko a jeho svoboda (ETA)","y":2},
{"rok":2008,"nazev":"Baskicko a jeho svoboda (ETA)","y":3},
{"rok":2009,"nazev":"Baskicko a jeho svoboda (ETA)","y":3},
{"rok":2010,"nazev":"Baskicko a jeho svoboda (ETA)","y":0},
{"rok":2011,"nazev":"Baskicko a jeho svoboda (ETA)","y":0},
{"rok":2012,"nazev":"Baskicko a jeho svoboda (ETA)","y":0},
{"rok":2013,"nazev":"Baskicko a jeho svoboda (ETA)","y":0},
{"rok":2014,"nazev":"Baskicko a jeho svoboda (ETA)","y":0}],
[{"rok":1970,"nazev":"Sbor ulsterských dobrovolníků","y":3},
{"rok":1971,"nazev":"Sbor ulsterských dobrovolníků","y":17},
{"rok":1972,"nazev":"Sbor ulsterských dobrovolníků","y":27},
{"rok":1973,"nazev":"Sbor ulsterských dobrovolníků","y":28},
{"rok":1974,"nazev":"Sbor ulsterských dobrovolníků","y":69},
{"rok":1975,"nazev":"Sbor ulsterských dobrovolníků","y":65},
{"rok":1976,"nazev":"Sbor ulsterských dobrovolníků","y":46},
{"rok":1977,"nazev":"Sbor ulsterských dobrovolníků","y":13},
{"rok":1978,"nazev":"Sbor ulsterských dobrovolníků","y":7},
{"rok":1979,"nazev":"Sbor ulsterských dobrovolníků","y":6},
{"rok":1980,"nazev":"Sbor ulsterských dobrovolníků","y":4},
{"rok":1981,"nazev":"Sbor ulsterských dobrovolníků","y":3},
{"rok":1982,"nazev":"Sbor ulsterských dobrovolníků","y":6},
{"rok":1983,"nazev":"Sbor ulsterských dobrovolníků","y":1},
{"rok":1984,"nazev":"Sbor ulsterských dobrovolníků","y":3},
{"rok":1985,"nazev":"Sbor ulsterských dobrovolníků","y":2},
{"rok":1986,"nazev":"Sbor ulsterských dobrovolníků","y":3},
{"rok":1987,"nazev":"Sbor ulsterských dobrovolníků","y":2},
{"rok":1988,"nazev":"Sbor ulsterských dobrovolníků","y":6},
{"rok":1989,"nazev":"Sbor ulsterských dobrovolníků","y":7},
{"rok":1990,"nazev":"Sbor ulsterských dobrovolníků","y":8},
{"rok":1991,"nazev":"Sbor ulsterských dobrovolníků","y":2},
{"rok":1992,"nazev":"Sbor ulsterských dobrovolníků","y":8},
{"rok":1994,"nazev":"Sbor ulsterských dobrovolníků","y":21},
{"rok":1995,"nazev":"Sbor ulsterských dobrovolníků","y":1},
{"rok":1996,"nazev":"Sbor ulsterských dobrovolníků","y":2},
{"rok":1997,"nazev":"Sbor ulsterských dobrovolníků","y":3},
{"rok":1998,"nazev":"Sbor ulsterských dobrovolníků","y":0},
{"rok":1999,"nazev":"Sbor ulsterských dobrovolníků","y":1},
{"rok":2000,"nazev":"Sbor ulsterských dobrovolníků","y":2},
{"rok":2001,"nazev":"Sbor ulsterských dobrovolníků","y":0},
{"rok":2002,"nazev":"Sbor ulsterských dobrovolníků","y":0},
{"rok":2003,"nazev":"Sbor ulsterských dobrovolníků","y":0},
{"rok":2004,"nazev":"Sbor ulsterských dobrovolníků","y":0},
{"rok":2005,"nazev":"Sbor ulsterských dobrovolníků","y":1},
{"rok":2006,"nazev":"Sbor ulsterských dobrovolníků","y":0},
{"rok":2007,"nazev":"Sbor ulsterských dobrovolníků","y":0},
{"rok":2008,"nazev":"Sbor ulsterských dobrovolníků","y":0},
{"rok":2009,"nazev":"Sbor ulsterských dobrovolníků","y":0},
{"rok":2010,"nazev":"Sbor ulsterských dobrovolníků","y":0},
{"rok":2011,"nazev":"Sbor ulsterských dobrovolníků","y":0},
{"rok":2012,"nazev":"Sbor ulsterských dobrovolníků","y":0},
{"rok":2013,"nazev":"Sbor ulsterských dobrovolníků","y":0},
{"rok":2014,"nazev":"Sbor ulsterských dobrovolníků","y":0}],
[{"rok":1970,"nazev":"Ulsterští bojovníci za svobodu","y":0},
{"rok":1971,"nazev":"Ulsterští bojovníci za svobodu","y":0},
{"rok":1972,"nazev":"Ulsterští bojovníci za svobodu","y":28},
{"rok":1973,"nazev":"Ulsterští bojovníci za svobodu","y":16},
{"rok":1974,"nazev":"Ulsterští bojovníci za svobodu","y":21},
{"rok":1975,"nazev":"Ulsterští bojovníci za svobodu","y":8},
{"rok":1976,"nazev":"Ulsterští bojovníci za svobodu","y":24},
{"rok":1977,"nazev":"Ulsterští bojovníci za svobodu","y":6},
{"rok":1978,"nazev":"Ulsterští bojovníci za svobodu","y":1},
{"rok":1979,"nazev":"Ulsterští bojovníci za svobodu","y":4},
{"rok":1980,"nazev":"Ulsterští bojovníci za svobodu","y":6},
{"rok":1981,"nazev":"Ulsterští bojovníci za svobodu","y":7},
{"rok":1982,"nazev":"Ulsterští bojovníci za svobodu","y":3},
{"rok":1983,"nazev":"Ulsterští bojovníci za svobodu","y":1},
{"rok":1984,"nazev":"Ulsterští bojovníci za svobodu","y":1},
{"rok":1985,"nazev":"Ulsterští bojovníci za svobodu","y":2},
{"rok":1986,"nazev":"Ulsterští bojovníci za svobodu","y":6},
{"rok":1987,"nazev":"Ulsterští bojovníci za svobodu","y":10},
{"rok":1988,"nazev":"Ulsterští bojovníci za svobodu","y":8},
{"rok":1989,"nazev":"Ulsterští bojovníci za svobodu","y":3},
{"rok":1990,"nazev":"Ulsterští bojovníci za svobodu","y":3},
{"rok":1991,"nazev":"Ulsterští bojovníci za svobodu","y":8},
{"rok":1992,"nazev":"Ulsterští bojovníci za svobodu","y":18},
{"rok":1994,"nazev":"Ulsterští bojovníci za svobodu","y":13},
{"rok":1995,"nazev":"Ulsterští bojovníci za svobodu","y":0},
{"rok":1996,"nazev":"Ulsterští bojovníci za svobodu","y":0},
{"rok":1997,"nazev":"Ulsterští bojovníci za svobodu","y":3},
{"rok":1998,"nazev":"Ulsterští bojovníci za svobodu","y":0},
{"rok":1999,"nazev":"Ulsterští bojovníci za svobodu","y":0},
{"rok":2000,"nazev":"Ulsterští bojovníci za svobodu","y":1},
{"rok":2001,"nazev":"Ulsterští bojovníci za svobodu","y":0},
{"rok":2002,"nazev":"Ulsterští bojovníci za svobodu","y":0},
{"rok":2003,"nazev":"Ulsterští bojovníci za svobodu","y":0},
{"rok":2004,"nazev":"Ulsterští bojovníci za svobodu","y":0},
{"rok":2005,"nazev":"Ulsterští bojovníci za svobodu","y":0},
{"rok":2006,"nazev":"Ulsterští bojovníci za svobodu","y":0},
{"rok":2007,"nazev":"Ulsterští bojovníci za svobodu","y":0},
{"rok":2008,"nazev":"Ulsterští bojovníci za svobodu","y":0},
{"rok":2009,"nazev":"Ulsterští bojovníci za svobodu","y":0},
{"rok":2010,"nazev":"Ulsterští bojovníci za svobodu","y":0},
{"rok":2011,"nazev":"Ulsterští bojovníci za svobodu","y":0},
{"rok":2012,"nazev":"Ulsterští bojovníci za svobodu","y":0},
{"rok":2013,"nazev":"Ulsterští bojovníci za svobodu","y":0},
{"rok":2014,"nazev":"Ulsterští bojovníci za svobodu","y":0}],
[{"rok":1970,"nazev":"Brigády Abu Hafs al-Masrí","y":0},
{"rok":1971,"nazev":"Brigády Abu Hafs al-Masrí","y":0},
{"rok":1972,"nazev":"Brigády Abu Hafs al-Masrí","y":0},
{"rok":1973,"nazev":"Brigády Abu Hafs al-Masrí","y":0},
{"rok":1974,"nazev":"Brigády Abu Hafs al-Masrí","y":0},
{"rok":1975,"nazev":"Brigády Abu Hafs al-Masrí","y":0},
{"rok":1976,"nazev":"Brigády Abu Hafs al-Masrí","y":0},
{"rok":1977,"nazev":"Brigády Abu Hafs al-Masrí","y":0},
{"rok":1978,"nazev":"Brigády Abu Hafs al-Masrí","y":0},
{"rok":1979,"nazev":"Brigády Abu Hafs al-Masrí","y":0},
{"rok":1980,"nazev":"Brigády Abu Hafs al-Masrí","y":0},
{"rok":1981,"nazev":"Brigády Abu Hafs al-Masrí","y":0},
{"rok":1982,"nazev":"Brigády Abu Hafs al-Masrí","y":0},
{"rok":1983,"nazev":"Brigády Abu Hafs al-Masrí","y":0},
{"rok":1984,"nazev":"Brigády Abu Hafs al-Masrí","y":0},
{"rok":1985,"nazev":"Brigády Abu Hafs al-Masrí","y":0},
{"rok":1986,"nazev":"Brigády Abu Hafs al-Masrí","y":0},
{"rok":1987,"nazev":"Brigády Abu Hafs al-Masrí","y":0},
{"rok":1988,"nazev":"Brigády Abu Hafs al-Masrí","y":0},
{"rok":1989,"nazev":"Brigády Abu Hafs al-Masrí","y":0},
{"rok":1990,"nazev":"Brigády Abu Hafs al-Masrí","y":0},
{"rok":1991,"nazev":"Brigády Abu Hafs al-Masrí","y":0},
{"rok":1992,"nazev":"Brigády Abu Hafs al-Masrí","y":0},
{"rok":1994,"nazev":"Brigády Abu Hafs al-Masrí","y":0},
{"rok":1995,"nazev":"Brigády Abu Hafs al-Masrí","y":0},
{"rok":1996,"nazev":"Brigády Abu Hafs al-Masrí","y":0},
{"rok":1997,"nazev":"Brigády Abu Hafs al-Masrí","y":0},
{"rok":1998,"nazev":"Brigády Abu Hafs al-Masrí","y":0},
{"rok":1999,"nazev":"Brigády Abu Hafs al-Masrí","y":0},
{"rok":2000,"nazev":"Brigády Abu Hafs al-Masrí","y":0},
{"rok":2001,"nazev":"Brigády Abu Hafs al-Masrí","y":0},
{"rok":2002,"nazev":"Brigády Abu Hafs al-Masrí","y":0},
{"rok":2003,"nazev":"Brigády Abu Hafs al-Masrí","y":0},
{"rok":2004,"nazev":"Brigády Abu Hafs al-Masrí","y":191},
{"rok":2005,"nazev":"Brigády Abu Hafs al-Masrí","y":0},
{"rok":2006,"nazev":"Brigády Abu Hafs al-Masrí","y":0},
{"rok":2007,"nazev":"Brigády Abu Hafs al-Masrí","y":0},
{"rok":2008,"nazev":"Brigády Abu Hafs al-Masrí","y":0},
{"rok":2009,"nazev":"Brigády Abu Hafs al-Masrí","y":0},
{"rok":2010,"nazev":"Brigády Abu Hafs al-Masrí","y":0},
{"rok":2011,"nazev":"Brigády Abu Hafs al-Masrí","y":0},
{"rok":2012,"nazev":"Brigády Abu Hafs al-Masrí","y":0},
{"rok":2013,"nazev":"Brigády Abu Hafs al-Masrí","y":0},
{"rok":2014,"nazev":"Brigády Abu Hafs al-Masrí","y":0}],
[{"rok":1970,"nazev":"Lidová fronta pro osvobození Palestiny - Hlavní velení","y":47},
{"rok":1971,"nazev":"Lidová fronta pro osvobození Palestiny - Hlavní velení","y":0},
{"rok":1972,"nazev":"Lidová fronta pro osvobození Palestiny - Hlavní velení","y":0},
{"rok":1973,"nazev":"Lidová fronta pro osvobození Palestiny - Hlavní velení","y":0},
{"rok":1974,"nazev":"Lidová fronta pro osvobození Palestiny - Hlavní velení","y":88},
{"rok":1975,"nazev":"Lidová fronta pro osvobození Palestiny - Hlavní velení","y":0},
{"rok":1976,"nazev":"Lidová fronta pro osvobození Palestiny - Hlavní velení","y":0},
{"rok":1977,"nazev":"Lidová fronta pro osvobození Palestiny - Hlavní velení","y":0},
{"rok":1978,"nazev":"Lidová fronta pro osvobození Palestiny - Hlavní velení","y":0},
{"rok":1979,"nazev":"Lidová fronta pro osvobození Palestiny - Hlavní velení","y":0},
{"rok":1980,"nazev":"Lidová fronta pro osvobození Palestiny - Hlavní velení","y":0},
{"rok":1981,"nazev":"Lidová fronta pro osvobození Palestiny - Hlavní velení","y":0},
{"rok":1982,"nazev":"Lidová fronta pro osvobození Palestiny - Hlavní velení","y":0},
{"rok":1983,"nazev":"Lidová fronta pro osvobození Palestiny - Hlavní velení","y":0},
{"rok":1984,"nazev":"Lidová fronta pro osvobození Palestiny - Hlavní velení","y":0},
{"rok":1985,"nazev":"Lidová fronta pro osvobození Palestiny - Hlavní velení","y":0},
{"rok":1986,"nazev":"Lidová fronta pro osvobození Palestiny - Hlavní velení","y":0},
{"rok":1987,"nazev":"Lidová fronta pro osvobození Palestiny - Hlavní velení","y":0},
{"rok":1988,"nazev":"Lidová fronta pro osvobození Palestiny - Hlavní velení","y":0},
{"rok":1989,"nazev":"Lidová fronta pro osvobození Palestiny - Hlavní velení","y":0},
{"rok":1990,"nazev":"Lidová fronta pro osvobození Palestiny - Hlavní velení","y":0},
{"rok":1991,"nazev":"Lidová fronta pro osvobození Palestiny - Hlavní velení","y":0},
{"rok":1992,"nazev":"Lidová fronta pro osvobození Palestiny - Hlavní velení","y":0},
{"rok":1994,"nazev":"Lidová fronta pro osvobození Palestiny - Hlavní velení","y":0},
{"rok":1995,"nazev":"Lidová fronta pro osvobození Palestiny - Hlavní velení","y":0},
{"rok":1996,"nazev":"Lidová fronta pro osvobození Palestiny - Hlavní velení","y":0},
{"rok":1997,"nazev":"Lidová fronta pro osvobození Palestiny - Hlavní velení","y":0},
{"rok":1998,"nazev":"Lidová fronta pro osvobození Palestiny - Hlavní velení","y":0},
{"rok":1999,"nazev":"Lidová fronta pro osvobození Palestiny - Hlavní velení","y":0},
{"rok":2000,"nazev":"Lidová fronta pro osvobození Palestiny - Hlavní velení","y":0},
{"rok":2001,"nazev":"Lidová fronta pro osvobození Palestiny - Hlavní velení","y":0},
{"rok":2002,"nazev":"Lidová fronta pro osvobození Palestiny - Hlavní velení","y":0},
{"rok":2003,"nazev":"Lidová fronta pro osvobození Palestiny - Hlavní velení","y":0},
{"rok":2004,"nazev":"Lidová fronta pro osvobození Palestiny - Hlavní velení","y":0},
{"rok":2005,"nazev":"Lidová fronta pro osvobození Palestiny - Hlavní velení","y":0},
{"rok":2006,"nazev":"Lidová fronta pro osvobození Palestiny - Hlavní velení","y":0},
{"rok":2007,"nazev":"Lidová fronta pro osvobození Palestiny - Hlavní velení","y":0},
{"rok":2008,"nazev":"Lidová fronta pro osvobození Palestiny - Hlavní velení","y":0},
{"rok":2009,"nazev":"Lidová fronta pro osvobození Palestiny - Hlavní velení","y":0},
{"rok":2010,"nazev":"Lidová fronta pro osvobození Palestiny - Hlavní velení","y":0},
{"rok":2011,"nazev":"Lidová fronta pro osvobození Palestiny - Hlavní velení","y":0},
{"rok":2012,"nazev":"Lidová fronta pro osvobození Palestiny - Hlavní velení","y":0},
{"rok":2013,"nazev":"Lidová fronta pro osvobození Palestiny - Hlavní velení","y":0},
{"rok":2014,"nazev":"Lidová fronta pro osvobození Palestiny - Hlavní velení","y":0}],
[{"rok":1970,"nazev":"Irská národní osvobozenecká armáda","y":0},
{"rok":1971,"nazev":"Irská národní osvobozenecká armáda","y":0},
{"rok":1972,"nazev":"Irská národní osvobozenecká armáda","y":0},
{"rok":1973,"nazev":"Irská národní osvobozenecká armáda","y":0},
{"rok":1974,"nazev":"Irská národní osvobozenecká armáda","y":0},
{"rok":1975,"nazev":"Irská národní osvobozenecká armáda","y":8},
{"rok":1976,"nazev":"Irská národní osvobozenecká armáda","y":6},
{"rok":1977,"nazev":"Irská národní osvobozenecká armáda","y":2},
{"rok":1978,"nazev":"Irská národní osvobozenecká armáda","y":0},
{"rok":1979,"nazev":"Irská národní osvobozenecká armáda","y":6},
{"rok":1980,"nazev":"Irská národní osvobozenecká armáda","y":5},
{"rok":1981,"nazev":"Irská národní osvobozenecká armáda","y":6},
{"rok":1982,"nazev":"Irská národní osvobozenecká armáda","y":28},
{"rok":1983,"nazev":"Irská národní osvobozenecká armáda","y":9},
{"rok":1984,"nazev":"Irská národní osvobozenecká armáda","y":2},
{"rok":1985,"nazev":"Irská národní osvobozenecká armáda","y":1},
{"rok":1986,"nazev":"Irská národní osvobozenecká armáda","y":1},
{"rok":1987,"nazev":"Irská národní osvobozenecká armáda","y":10},
{"rok":1988,"nazev":"Irská národní osvobozenecká armáda","y":2},
{"rok":1989,"nazev":"Irská národní osvobozenecká armáda","y":0},
{"rok":1990,"nazev":"Irská národní osvobozenecká armáda","y":1},
{"rok":1991,"nazev":"Irská národní osvobozenecká armáda","y":1},
{"rok":1992,"nazev":"Irská národní osvobozenecká armáda","y":2},
{"rok":1994,"nazev":"Irská národní osvobozenecká armáda","y":5},
{"rok":1995,"nazev":"Irská národní osvobozenecká armáda","y":0},
{"rok":1996,"nazev":"Irská národní osvobozenecká armáda","y":6},
{"rok":1997,"nazev":"Irská národní osvobozenecká armáda","y":2},
{"rok":1998,"nazev":"Irská národní osvobozenecká armáda","y":2},
{"rok":1999,"nazev":"Irská národní osvobozenecká armáda","y":0},
{"rok":2000,"nazev":"Irská národní osvobozenecká armáda","y":0},
{"rok":2001,"nazev":"Irská národní osvobozenecká armáda","y":0},
{"rok":2002,"nazev":"Irská národní osvobozenecká armáda","y":0},
{"rok":2003,"nazev":"Irská národní osvobozenecká armáda","y":0},
{"rok":2004,"nazev":"Irská národní osvobozenecká armáda","y":0},
{"rok":2005,"nazev":"Irská národní osvobozenecká armáda","y":0},
{"rok":2006,"nazev":"Irská národní osvobozenecká armáda","y":0},
{"rok":2007,"nazev":"Irská národní osvobozenecká armáda","y":0},
{"rok":2008,"nazev":"Irská národní osvobozenecká armáda","y":0},
{"rok":2009,"nazev":"Irská národní osvobozenecká armáda","y":0},
{"rok":2010,"nazev":"Irská národní osvobozenecká armáda","y":0},
{"rok":2011,"nazev":"Irská národní osvobozenecká armáda","y":0},
{"rok":2012,"nazev":"Irská národní osvobozenecká armáda","y":0},
{"rok":2013,"nazev":"Irská národní osvobozenecká armáda","y":0},
{"rok":2014,"nazev":"Irská národní osvobozenecká armáda","y":0}],
[{"rok":1970,"nazev":"Organizace Abú Nidala","y":0},
{"rok":1971,"nazev":"Organizace Abú Nidala","y":0},
{"rok":1972,"nazev":"Organizace Abú Nidala","y":0},
{"rok":1973,"nazev":"Organizace Abú Nidala","y":0},
{"rok":1974,"nazev":"Organizace Abú Nidala","y":0},
{"rok":1975,"nazev":"Organizace Abú Nidala","y":0},
{"rok":1976,"nazev":"Organizace Abú Nidala","y":0},
{"rok":1977,"nazev":"Organizace Abú Nidala","y":0},
{"rok":1978,"nazev":"Organizace Abú Nidala","y":2},
{"rok":1979,"nazev":"Organizace Abú Nidala","y":0},
{"rok":1980,"nazev":"Organizace Abú Nidala","y":2},
{"rok":1981,"nazev":"Organizace Abú Nidala","y":2},
{"rok":1982,"nazev":"Organizace Abú Nidala","y":6},
{"rok":1983,"nazev":"Organizace Abú Nidala","y":2},
{"rok":1984,"nazev":"Organizace Abú Nidala","y":2},
{"rok":1985,"nazev":"Organizace Abú Nidala","y":80},
{"rok":1986,"nazev":"Organizace Abú Nidala","y":0},
{"rok":1987,"nazev":"Organizace Abú Nidala","y":0},
{"rok":1988,"nazev":"Organizace Abú Nidala","y":0},
{"rok":1989,"nazev":"Organizace Abú Nidala","y":0},
{"rok":1990,"nazev":"Organizace Abú Nidala","y":0},
{"rok":1991,"nazev":"Organizace Abú Nidala","y":0},
{"rok":1992,"nazev":"Organizace Abú Nidala","y":0},
{"rok":1994,"nazev":"Organizace Abú Nidala","y":0},
{"rok":1995,"nazev":"Organizace Abú Nidala","y":0},
{"rok":1996,"nazev":"Organizace Abú Nidala","y":0},
{"rok":1997,"nazev":"Organizace Abú Nidala","y":0},
{"rok":1998,"nazev":"Organizace Abú Nidala","y":0},
{"rok":1999,"nazev":"Organizace Abú Nidala","y":0},
{"rok":2000,"nazev":"Organizace Abú Nidala","y":0},
{"rok":2001,"nazev":"Organizace Abú Nidala","y":0},
{"rok":2002,"nazev":"Organizace Abú Nidala","y":0},
{"rok":2003,"nazev":"Organizace Abú Nidala","y":0},
{"rok":2004,"nazev":"Organizace Abú Nidala","y":0},
{"rok":2005,"nazev":"Organizace Abú Nidala","y":0},
{"rok":2006,"nazev":"Organizace Abú Nidala","y":0},
{"rok":2007,"nazev":"Organizace Abú Nidala","y":0},
{"rok":2008,"nazev":"Organizace Abú Nidala","y":0},
{"rok":2009,"nazev":"Organizace Abú Nidala","y":0},
{"rok":2010,"nazev":"Organizace Abú Nidala","y":0},
{"rok":2011,"nazev":"Organizace Abú Nidala","y":0},
{"rok":2012,"nazev":"Organizace Abú Nidala","y":0},
{"rok":2013,"nazev":"Organizace Abú Nidala","y":0},
{"rok":2014,"nazev":"Organizace Abú Nidala","y":0}],
[{"rok":1970,"nazev":"Antifašistická skupina odporu prvního října","y":0},
{"rok":1971,"nazev":"Antifašistická skupina odporu prvního října","y":0},
{"rok":1972,"nazev":"Antifašistická skupina odporu prvního října","y":0},
{"rok":1973,"nazev":"Antifašistická skupina odporu prvního října","y":0},
{"rok":1974,"nazev":"Antifašistická skupina odporu prvního října","y":0},
{"rok":1975,"nazev":"Antifašistická skupina odporu prvního října","y":11},
{"rok":1976,"nazev":"Antifašistická skupina odporu prvního října","y":6},
{"rok":1977,"nazev":"Antifašistická skupina odporu prvního října","y":12},
{"rok":1978,"nazev":"Antifašistická skupina odporu prvního října","y":4},
{"rok":1979,"nazev":"Antifašistická skupina odporu prvního října","y":20},
{"rok":1980,"nazev":"Antifašistická skupina odporu prvního října","y":5},
{"rok":1981,"nazev":"Antifašistická skupina odporu prvního října","y":9},
{"rok":1982,"nazev":"Antifašistická skupina odporu prvního října","y":0},
{"rok":1983,"nazev":"Antifašistická skupina odporu prvního října","y":2},
{"rok":1984,"nazev":"Antifašistická skupina odporu prvního října","y":4},
{"rok":1985,"nazev":"Antifašistická skupina odporu prvního října","y":0},
{"rok":1986,"nazev":"Antifašistická skupina odporu prvního října","y":0},
{"rok":1987,"nazev":"Antifašistická skupina odporu prvního října","y":0},
{"rok":1988,"nazev":"Antifašistická skupina odporu prvního října","y":2},
{"rok":1989,"nazev":"Antifašistická skupina odporu prvního října","y":3},
{"rok":1990,"nazev":"Antifašistická skupina odporu prvního října","y":3},
{"rok":1991,"nazev":"Antifašistická skupina odporu prvního října","y":0},
{"rok":1992,"nazev":"Antifašistická skupina odporu prvního října","y":2},
{"rok":1994,"nazev":"Antifašistická skupina odporu prvního října","y":0},
{"rok":1995,"nazev":"Antifašistická skupina odporu prvního října","y":0},
{"rok":1996,"nazev":"Antifašistická skupina odporu prvního října","y":0},
{"rok":1997,"nazev":"Antifašistická skupina odporu prvního října","y":0},
{"rok":1998,"nazev":"Antifašistická skupina odporu prvního října","y":0},
{"rok":1999,"nazev":"Antifašistická skupina odporu prvního října","y":0},
{"rok":2000,"nazev":"Antifašistická skupina odporu prvního října","y":3},
{"rok":2001,"nazev":"Antifašistická skupina odporu prvního října","y":0},
{"rok":2002,"nazev":"Antifašistická skupina odporu prvního října","y":0},
{"rok":2003,"nazev":"Antifašistická skupina odporu prvního října","y":0},
{"rok":2004,"nazev":"Antifašistická skupina odporu prvního října","y":0},
{"rok":2005,"nazev":"Antifašistická skupina odporu prvního října","y":0},
{"rok":2006,"nazev":"Antifašistická skupina odporu prvního října","y":0},
{"rok":2007,"nazev":"Antifašistická skupina odporu prvního října","y":0},
{"rok":2008,"nazev":"Antifašistická skupina odporu prvního října","y":0},
{"rok":2009,"nazev":"Antifašistická skupina odporu prvního října","y":0},
{"rok":2010,"nazev":"Antifašistická skupina odporu prvního října","y":0},
{"rok":2011,"nazev":"Antifašistická skupina odporu prvního října","y":0},
{"rok":2012,"nazev":"Antifašistická skupina odporu prvního října","y":0},
{"rok":2013,"nazev":"Antifašistická skupina odporu prvního října","y":0},
{"rok":2014,"nazev":"Antifašistická skupina odporu prvního října","y":0}],
[{"rok":1970,"nazev":"Ozbrojená revoluční jádra","y":0},
{"rok":1971,"nazev":"Ozbrojená revoluční jádra","y":0},
{"rok":1972,"nazev":"Ozbrojená revoluční jádra","y":0},
{"rok":1973,"nazev":"Ozbrojená revoluční jádra","y":0},
{"rok":1974,"nazev":"Ozbrojená revoluční jádra","y":0},
{"rok":1975,"nazev":"Ozbrojená revoluční jádra","y":0},
{"rok":1976,"nazev":"Ozbrojená revoluční jádra","y":0},
{"rok":1977,"nazev":"Ozbrojená revoluční jádra","y":0},
{"rok":1978,"nazev":"Ozbrojená revoluční jádra","y":0},
{"rok":1979,"nazev":"Ozbrojená revoluční jádra","y":1},
{"rok":1980,"nazev":"Ozbrojená revoluční jádra","y":79},
{"rok":1981,"nazev":"Ozbrojená revoluční jádra","y":5},
{"rok":1982,"nazev":"Ozbrojená revoluční jádra","y":1},
{"rok":1983,"nazev":"Ozbrojená revoluční jádra","y":0},
{"rok":1984,"nazev":"Ozbrojená revoluční jádra","y":0},
{"rok":1985,"nazev":"Ozbrojená revoluční jádra","y":0},
{"rok":1986,"nazev":"Ozbrojená revoluční jádra","y":0},
{"rok":1987,"nazev":"Ozbrojená revoluční jádra","y":0},
{"rok":1988,"nazev":"Ozbrojená revoluční jádra","y":0},
{"rok":1989,"nazev":"Ozbrojená revoluční jádra","y":0},
{"rok":1990,"nazev":"Ozbrojená revoluční jádra","y":0},
{"rok":1991,"nazev":"Ozbrojená revoluční jádra","y":0},
{"rok":1992,"nazev":"Ozbrojená revoluční jádra","y":0},
{"rok":1994,"nazev":"Ozbrojená revoluční jádra","y":0},
{"rok":1995,"nazev":"Ozbrojená revoluční jádra","y":0},
{"rok":1996,"nazev":"Ozbrojená revoluční jádra","y":0},
{"rok":1997,"nazev":"Ozbrojená revoluční jádra","y":0},
{"rok":1998,"nazev":"Ozbrojená revoluční jádra","y":0},
{"rok":1999,"nazev":"Ozbrojená revoluční jádra","y":0},
{"rok":2000,"nazev":"Ozbrojená revoluční jádra","y":0},
{"rok":2001,"nazev":"Ozbrojená revoluční jádra","y":0},
{"rok":2002,"nazev":"Ozbrojená revoluční jádra","y":0},
{"rok":2003,"nazev":"Ozbrojená revoluční jádra","y":0},
{"rok":2004,"nazev":"Ozbrojená revoluční jádra","y":0},
{"rok":2005,"nazev":"Ozbrojená revoluční jádra","y":0},
{"rok":2006,"nazev":"Ozbrojená revoluční jádra","y":0},
{"rok":2007,"nazev":"Ozbrojená revoluční jádra","y":0},
{"rok":2008,"nazev":"Ozbrojená revoluční jádra","y":0},
{"rok":2009,"nazev":"Ozbrojená revoluční jádra","y":0},
{"rok":2010,"nazev":"Ozbrojená revoluční jádra","y":0},
{"rok":2011,"nazev":"Ozbrojená revoluční jádra","y":0},
{"rok":2012,"nazev":"Ozbrojená revoluční jádra","y":0},
{"rok":2013,"nazev":"Ozbrojená revoluční jádra","y":0},
{"rok":2014,"nazev":"Ozbrojená revoluční jádra","y":0}],
[{"rok":1970,"nazev":"ostatní","y":11},
{"rok":1971,"nazev":"ostatní","y":17},
{"rok":1972,"nazev":"ostatní","y":121},
{"rok":1973,"nazev":"ostatní","y":84},
{"rok":1974,"nazev":"ostatní","y":77},
{"rok":1975,"nazev":"ostatní","y":123},
{"rok":1976,"nazev":"ostatní","y":121},
{"rok":1977,"nazev":"ostatní","y":70},
{"rok":1978,"nazev":"ostatní","y":67},
{"rok":1979,"nazev":"ostatní","y":68},
{"rok":1980,"nazev":"ostatní","y":187},
{"rok":1981,"nazev":"ostatní","y":51},
{"rok":1982,"nazev":"ostatní","y":35},
{"rok":1983,"nazev":"ostatní","y":47},
{"rok":1984,"nazev":"ostatní","y":61},
{"rok":1985,"nazev":"ostatní","y":58},
{"rok":1986,"nazev":"ostatní","y":41},
{"rok":1987,"nazev":"ostatní","y":31},
{"rok":1988,"nazev":"ostatní","y":39},
{"rok":1989,"nazev":"ostatní","y":21},
{"rok":1990,"nazev":"ostatní","y":17},
{"rok":1991,"nazev":"ostatní","y":48},
{"rok":1992,"nazev":"ostatní","y":58},
{"rok":1994,"nazev":"ostatní","y":12},
{"rok":1995,"nazev":"ostatní","y":30},
{"rok":1996,"nazev":"ostatní","y":6},
{"rok":1997,"nazev":"ostatní","y":13},
{"rok":1998,"nazev":"ostatní","y":35},
{"rok":1999,"nazev":"ostatní","y":6},
{"rok":2000,"nazev":"ostatní","y":7},
{"rok":2001,"nazev":"ostatní","y":11},
{"rok":2002,"nazev":"ostatní","y":4},
{"rok":2003,"nazev":"ostatní","y":2},
{"rok":2004,"nazev":"ostatní","y":3},
{"rok":2005,"nazev":"ostatní","y":58},
{"rok":2006,"nazev":"ostatní","y":3},
{"rok":2007,"nazev":"ostatní","y":14},
{"rok":2008,"nazev":"ostatní","y":0},
{"rok":2009,"nazev":"ostatní","y":4},
{"rok":2010,"nazev":"ostatní","y":4},
{"rok":2011,"nazev":"ostatní","y":81},
{"rok":2012,"nazev":"ostatní","y":10},
{"rok":2013,"nazev":"ostatní","y":6},
{"rok":2014,"nazev":"ostatní","y":5}],
[{"rok":1970,"nazev":"neznámí","y":2},
{"rok":1971,"nazev":"neznámí","y":1},
{"rok":1972,"nazev":"neznámí","y":4},
{"rok":1973,"nazev":"neznámí","y":40},
{"rok":1974,"nazev":"neznámí","y":5},
{"rok":1975,"nazev":"neznámí","y":1},
{"rok":1976,"nazev":"neznámí","y":6},
{"rok":1977,"nazev":"neznámí","y":18},
{"rok":1978,"nazev":"neznámí","y":17},
{"rok":1979,"nazev":"neznámí","y":27},
{"rok":1980,"nazev":"neznámí","y":60},
{"rok":1981,"nazev":"neznámí","y":18},
{"rok":1982,"nazev":"neznámí","y":10},
{"rok":1983,"nazev":"neznámí","y":7},
{"rok":1984,"nazev":"neznámí","y":15},
{"rok":1985,"nazev":"neznámí","y":14},
{"rok":1986,"nazev":"neznámí","y":25},
{"rok":1987,"nazev":"neznámí","y":10},
{"rok":1988,"nazev":"neznámí","y":281},
{"rok":1989,"nazev":"neznámí","y":7},
{"rok":1990,"nazev":"neznámí","y":15},
{"rok":1991,"nazev":"neznámí","y":17},
{"rok":1992,"nazev":"neznámí","y":25},
{"rok":1994,"nazev":"neznámí","y":18},
{"rok":1995,"nazev":"neznámí","y":19},
{"rok":1996,"nazev":"neznámí","y":18},
{"rok":1997,"nazev":"neznámí","y":16},
{"rok":1998,"nazev":"neznámí","y":7},
{"rok":1999,"nazev":"neznámí","y":3},
{"rok":2000,"nazev":"neznámí","y":5},
{"rok":2001,"nazev":"neznámí","y":16},
{"rok":2002,"nazev":"neznámí","y":1},
{"rok":2003,"nazev":"neznámí","y":0},
{"rok":2004,"nazev":"neznámí","y":2},
{"rok":2005,"nazev":"neznámí","y":1},
{"rok":2006,"nazev":"neznámí","y":0},
{"rok":2007,"nazev":"neznámí","y":1},
{"rok":2008,"nazev":"neznámí","y":0},
{"rok":2009,"nazev":"neznámí","y":8},
{"rok":2010,"nazev":"neznámí","y":1},
{"rok":2011,"nazev":"neznámí","y":0},
{"rok":2012,"nazev":"neznámí","y":0},
{"rok":2013,"nazev":"neznámí","y":0},
{"rok":2014,"nazev":"neznámí","y":2}]
]